^C:\USERS\PIOTR\SOURCE\REPOS\CALKA V3\CALKA V2\STDAFX.CPP
C:\USERS\PIOTR\SOURCE\REPOS\CALKA V3\CALKA V2\RELEASE\CALKA V2.PCH
C:\USERS\PIOTR\SOURCE\REPOS\CALKA V3\CALKA V2\RELEASE\VC141.PDB
C:\USERS\PIOTR\SOURCE\REPOS\CALKA V3\CALKA V2\RELEASE\STDAFX.OBJ
^C:\USERS\PIOTR\SOURCE\REPOS\CALKA V3\CALKA V2\CALKA V2.CPP
C:\USERS\PIOTR\SOURCE\REPOS\CALKA V3\CALKA V2\RELEASE\VC141.PDB
C:\USERS\PIOTR\SOURCE\REPOS\CALKA V3\CALKA V2\RELEASE\CALKA V2.OBJ
