^C:\USERS\ADMIN\DOCUMENTS\VISUAL STUDIO 2015\PROJECTS\CALKA V3\CALKA V2\RELEASE\CALKA V2.OBJ|C:\USERS\ADMIN\DOCUMENTS\VISUAL STUDIO 2015\PROJECTS\CALKA V3\CALKA V2\RELEASE\STDAFX.OBJ
/OUT:"C:\USERS\ADMIN\DOCUMENTS\VISUAL STUDIO 2015\PROJECTS\CALKA V3\RELEASE\CALKA V2.EXE" /INCREMENTAL:NO /NOLOGO KERNEL32.LIB USER32.LIB GDI32.LIB WINSPOOL.LIB COMDLG32.LIB ADVAPI32.LIB SHELL32.LIB OLE32.LIB OLEAUT32.LIB UUID.LIB ODBC32.LIB ODBCCP32.LIB /MANIFEST /MANIFESTUAC:"level='asInvoker' uiAccess='false'" /manifest:embed /DEBUG /PDB:"C:\USERS\ADMIN\DOCUMENTS\VISUAL STUDIO 2015\PROJECTS\CALKA V3\RELEASE\CALKA V2.PDB" /SUBSYSTEM:CONSOLE /OPT:REF /OPT:ICF /LTCG:incremental /TLBID:1 /DYNAMICBASE /NXCOMPAT /IMPLIB:"C:\USERS\ADMIN\DOCUMENTS\VISUAL STUDIO 2015\PROJECTS\CALKA V3\RELEASE\CALKA V2.LIB" /MACHINE:X86 /SAFESEH "RELEASE\CALKA V2.OBJ"RELEASE\STDAFX.OBJ
^C:\USERS\PIOTR\SOURCE\REPOS\CALKA V3\CALKA V2\RELEASE\CALKA V2.OBJ|C:\USERS\PIOTR\SOURCE\REPOS\CALKA V3\CALKA V2\RELEASE\STDAFX.OBJ
/OUT:"C:\USERS\PIOTR\SOURCE\REPOS\CALKA V3\RELEASE\CALKA V2.EXE" /INCREMENTAL:NO /NOLOGO KERNEL32.LIB USER32.LIB GDI32.LIB WINSPOOL.LIB COMDLG32.LIB ADVAPI32.LIB SHELL32.LIB OLE32.LIB OLEAUT32.LIB UUID.LIB ODBC32.LIB ODBCCP32.LIB /MANIFEST /MANIFESTUAC:"level='asInvoker' uiAccess='false'" /manifest:embed /DEBUG /PDB:"C:\USERS\PIOTR\SOURCE\REPOS\CALKA V3\RELEASE\CALKA V2.PDB" /SUBSYSTEM:CONSOLE /OPT:REF /OPT:ICF /LTCG:incremental /TLBID:1 /DYNAMICBASE /NXCOMPAT /IMPLIB:"C:\USERS\PIOTR\SOURCE\REPOS\CALKA V3\RELEASE\CALKA V2.LIB" /MACHINE:X86 /SAFESEH "RELEASE\CALKA V2.OBJ"RELEASE\STDAFX.OBJ
