^C:\USERS\ADMIN\DOCUMENTS\VISUAL STUDIO 2015\PROJECTS\CALKA V2\CALKA V2\STDAFX.CPP
C:\USERS\ADMIN\DOCUMENTS\VISUAL STUDIO 2015\PROJECTS\CALKA V2\CALKA V2\DEBUG\CALKA V2.PCH
C:\USERS\ADMIN\DOCUMENTS\VISUAL STUDIO 2015\PROJECTS\CALKA V2\CALKA V2\DEBUG\VC140.PDB
C:\USERS\ADMIN\DOCUMENTS\VISUAL STUDIO 2015\PROJECTS\CALKA V2\CALKA V2\DEBUG\VC140.IDB
C:\USERS\ADMIN\DOCUMENTS\VISUAL STUDIO 2015\PROJECTS\CALKA V2\CALKA V2\DEBUG\STDAFX.OBJ
^C:\USERS\ADMIN\DOCUMENTS\VISUAL STUDIO 2015\PROJECTS\CALKA V2\CALKA V2\CALKA V2.CPP
C:\USERS\ADMIN\DOCUMENTS\VISUAL STUDIO 2015\PROJECTS\CALKA V2\CALKA V2\DEBUG\VC140.PDB
C:\USERS\ADMIN\DOCUMENTS\VISUAL STUDIO 2015\PROJECTS\CALKA V2\CALKA V2\DEBUG\VC140.IDB
C:\USERS\ADMIN\DOCUMENTS\VISUAL STUDIO 2015\PROJECTS\CALKA V2\CALKA V2\DEBUG\CALKA V2.OBJ
^C:\USERS\ADMIN\DOCUMENTS\VISUAL STUDIO 2015\PROJECTS\CALKA V3\CALKA V2\STDAFX.CPP
C:\USERS\ADMIN\DOCUMENTS\VISUAL STUDIO 2015\PROJECTS\CALKA V3\CALKA V2\DEBUG\CALKA V2.PCH
C:\USERS\ADMIN\DOCUMENTS\VISUAL STUDIO 2015\PROJECTS\CALKA V3\CALKA V2\DEBUG\VC140.PDB
C:\USERS\ADMIN\DOCUMENTS\VISUAL STUDIO 2015\PROJECTS\CALKA V3\CALKA V2\DEBUG\VC140.IDB
C:\USERS\ADMIN\DOCUMENTS\VISUAL STUDIO 2015\PROJECTS\CALKA V3\CALKA V2\DEBUG\STDAFX.OBJ
^C:\USERS\ADMIN\DOCUMENTS\VISUAL STUDIO 2015\PROJECTS\CALKA V3\CALKA V2\CALKA V2.CPP
C:\USERS\ADMIN\DOCUMENTS\VISUAL STUDIO 2015\PROJECTS\CALKA V3\CALKA V2\DEBUG\VC140.PDB
C:\USERS\ADMIN\DOCUMENTS\VISUAL STUDIO 2015\PROJECTS\CALKA V3\CALKA V2\DEBUG\VC140.IDB
C:\USERS\ADMIN\DOCUMENTS\VISUAL STUDIO 2015\PROJECTS\CALKA V3\CALKA V2\DEBUG\CALKA V2.OBJ
